Ranking of national weather events affecting population and economic damage
…
events vs population health

The total was summarized for each event type.

df1_population <-
  df1 %>% 
  group_by(evtype) %>% 
  summarize(
    fatalities = sum(fatalities),
    injuries = sum(injuries),
    .groups = "drop_last"
  )
df1_population

## # A tibble: 985 x 3
##    evtype                  fatalities injuries
##    <chr>                        <dbl>    <dbl>
##  1 "   HIGH SURF ADVISORY"          0        0
##  2 " COASTAL FLOOD"                 0        0
##  3 " FLASH FLOOD"                   0        0
##  4 " LIGHTNING"                     0        0
##  5 " TSTM WIND"                     0        0
##  6 " TSTM WIND (G45)"               0        0
##  7 " WATERSPOUT"                    0        0
##  8 " WIND"                          0        0
##  9 "?"                              0        0
## 10 "ABNORMAL WARMTH"                0        0
## #  with 975 more rows
…
events vs economic consequences

df1_economics <-
  df1 %>% 
  group_by(evtype) %>% 
  summarize(
    prop_sum = sum(prop),
    crop_sum = sum(crop),
    .groups = "drop_last"
  )
df1_economics

## # A tibble: 985 x 3
##    evtype                  prop_sum crop_sum
##    <chr>                      <dbl>    <dbl>
##  1 "   HIGH SURF ADVISORY"   200000        0
##  2 " COASTAL FLOOD"               0        0
##  3 " FLASH FLOOD"             50000        0
##  4 " LIGHTNING"                   0        0
##  5 " TSTM WIND"             8100000        0
##  6 " TSTM WIND (G45)"          8000        0
##  7 " WATERSPOUT"                  0        0
##  8 " WIND"                        0        0
##  9 "?"                         5000        0
## 10 "ABNORMAL WARMTH"              0        0
## #  with 975 more rows
…
